{
    "pagination": {
        "last_visible_page": 54116,
        "has_next_page": true,
        "current_page": 1,
        "items": {
            "count": 1,
            "total": 54116,
            "per_page": 1
        }
    },
    "data": [{
        "mal_id": 1,
        "url": "https://myanimelist.net/people/1/Tomokazu_Seki",
        "website_url": null,
        "images": {
            "jpg": {
                "image_url": "https://cdn.myanimelist.net/images/voiceactors/1/55486.jpg"
            }
        },
        "name": "Tomokazu Seki",
        "given_name": "智一",
        "family_name": "関",
        "alternate_names": [
            "Seki Mondoya",
            "門戸 開",
            "Monto Hiraku"
        ],
        "birthday": "1972-09-08T00:00:00+00:00",
        "favorites": 6083,
        "about": "Hometown: Tokyo, Japan\nBlood type: AB\n\nTwitter: @seki0908\nProfile: Atomic Monkey"
    }]
}